{
  "extends": ["tslint:recommended", "tslint-react", "tslint-config-prettier"],
  "linterOptions": {
    "exclude": [
      "config/**/*.js",
      "node_modules/**/*.ts",
      "coverage/lcov-report/*.js"
    ]
    
  },
  "rules": {
    "ordered-imports": [false],
    "object-literal-sort-keys": [false],
    "jsx-boolean-value": [false],
    "jsx-no-lambda": [false],
    "no-console": [false],
    "no-unused-expression": [false]
  }  
}